BANA4137 Case 2 - CVG Flights
…
One thing to note about this dataset that the flights data is only representative of 5 airlines. Even though the airlines provide names for 14 airlines, the flights will only be from the 5 shown above.

FLIGHT_NUMBER descibes flight number for the flight

ORIGIN_AIRPORT and DESTINATION_AIRPORT describe the airports of the origin and destination of the flight.

Below describes the two variables

all_flights %>% 
  group_by(ORIGIN_AIRPORT) %>% 
  count() %>% 
  arrange(desc(n))

## # A tibble: 38 x 2
## # Groups:   ORIGIN_AIRPORT [38]
##    ORIGIN_AIRPORT     n
##    <chr>          <int>
##  1 CVG             3886
##  2 ORD              727
##  3 DFW              458
##  4 ATL              412
##  5 EWR              299
##  6 IAH              247
##  7 MCO              196
##  8 DEN              142
##  9 MIA              134
## 10 BNA              100
## #  with 28 more rows

all_flights %>% 
  group_by(DESTINATION_AIRPORT) %>% 
  count() %>% 
  arrange(desc(n))

## # A tibble: 38 x 2
## # Groups:   DESTINATION_AIRPORT [38]
##    DESTINATION_AIRPORT     n
##    <chr>               <int>
##  1 CVG                  3877
##  2 ORD                   762
##  3 DFW                   460
##  4 ATL                   413
##  5 EWR                   294
##  6 IAH                   242
##  7 MCO                   197
##  8 MIA                   133
##  9 DEN                   118
## 10 FLL                   102
## #  with 28 more rows
…
